%YAML 1.1
%TAG !u! tag:unity3d.com,2011:
--- !u!114 &11400000
MonoBehaviour:
  m_ObjectHideFlags: 0
  m_CorrespondingSourceObject: {fileID: 0}
  m_PrefabInstance: {fileID: 0}
  m_PrefabAsset: {fileID: 0}
  m_GameObject: {fileID: 0}
  m_Enabled: 1
  m_EditorHideFlags: 0
  m_Script: {fileID: 11500000, guid: a72f4e78eeb6e15469fafe7458e026ac, type: 3}
  m_Name: Squirtle
  m_EditorClassIdentifier: 
  m_Nom: Squirtle
  m_NumPokedex: 4
  m_Desc: 
  m_Sprite: {fileID: 21300000, guid: b63846a1f32448d4e8a44d795f2a14ab, type: 3}
  m_SpriteF: {fileID: 21300000, guid: 18d92085fb60188479459b01680f127e, type: 3}
  m_Tipus: 1
  m_VidaMax: 380
  m_Nivell: 18
  m_Atacs:
  - {fileID: 11400000, guid: ac51fd56b26f09e4dbbbb0afb6d679eb, type: 2}
  - {fileID: 11400000, guid: 321a73b33dd798e49860de3f34c3f337, type: 2}
  - {fileID: 11400000, guid: 68045c2525213c049a8f8209a93b90c1, type: 2}
  - {fileID: 11400000, guid: 765668fda4693e346a831611cfb4901c, type: 2}
  m_Objecte: {fileID: 0}
  m_ATK: 0
  m_SpATK: 0
  m_DEF: 0
  m_SpDEF: 0
  m_SPD: 0
