%YAML 1.1
%TAG !u! tag:unity3d.com,2011:
--- !u!114 &11400000
MonoBehaviour:
  m_ObjectHideFlags: 0
  m_CorrespondingSourceObject: {fileID: 0}
  m_PrefabInstance: {fileID: 0}
  m_PrefabAsset: {fileID: 0}
  m_GameObject: {fileID: 0}
  m_Enabled: 1
  m_EditorHideFlags: 0
  m_Script: {fileID: 11500000, guid: fc733c0a4fe7200458cc828585471fb9, type: 3}
  m_Name: PunoFuego
  m_EditorClassIdentifier: 
  m_Nom: "Pu\xF1oFuego"
  m_PPsMaxims: 6
  m_PPsActuals: 6
  m_DMG: 12
  m_Precisio: 50
  m_Type: 0
  m_TypeAtac: 0
